11

8 7
1
1 1
1 2

7 7
4
0 6
5 6
6 3
1 4
1 1

8 6
6
3 3
7 2
5 1
4 2
3 5
4 4
2 2

7 5
26
2 3
3 0
5 0
4 0
4 2
5 2
6 0
5 3
4 1
2 4
5 3
0 4
1 3
5 3
2 4
6 4
0 3
0 3
6 0
3 2
6 0
6 2
2 4
0 0
0 1
6 4
5 1

23 18
20
14 15
20 11
12 1
10 10
18 17
17 14
16 1
1 14
22 1
0 2
5 4
8 1
9 3
2 5
6 12
15 1
14 2
2 2
14 1
14 13
6 6

9 3
10
0 1
1 1
4 2
0 1
6 2
5 0
2 0
4 2
5 0
6 1
5 2

24 18
13
11 7
14 1
11 13
17 5
1 2
23 12
21 1
20 6
12 1
1 5
21 10
17 13
12 4
2 1

8 6
6
3 3
7 2
5 1
4 2
3 5
4 4
2 2

5 11
7
1 4
2 5
1 1
1 0
1 5
2 8
3 10
4 2

6 7
5
1 2
4 5
4 0
1 1
3 1
3 1

7 7
4
0 6
5 6
6 3
1 4
10 1
