*** Life<ConwayCell> 10x10 ***

Generation = 0, Population = 14.
*.........
.*........
..*.......
...**.....
...***....
....**....
......*...
.......*..
........*.
.........*

Generation = 100, Population = 8.
.**.......
*..*......
*..*......
.**.......
..........
..........
..........
..........
..........
..........

*** Life<ConwayCell> 7x7 ***

Generation = 0, Population = 8.
.*.....
.**.*..
.....*.
.....*.
.*.....
..*....
.......

Generation = 3, Population = 5.
.*.*...
.*.*...
..*....
.......
.......
.......
.......

*** Life<ConwayCell> 10x50 ***

Generation = 0, Population = 10.
..................................................
.......*..........................................
.....*.**.........................................
.....*.*..........................................
.....*............................................
...*..............................................
.*.*..............................................
..................................................
..................................................
..................................................

Generation = 150, Population = 9.
..................................................
..................................................
..................................................
...***...***......................................
..................................................
.......*..........................................
.......*..........................................
.......*..........................................
..................................................
..................................................

*** Life<ConwayCell> 8x7 ***

Generation = 0, Population = 18.
***....
....*..
.*..*..
..*.*..
.......
..*....
..*.***
..*****

Generation = 20, Population = 0.
.......
.......
.......
.......
.......
.......
.......
.......

*** Life<ConwayCell> 7x7 ***

Generation = 0, Population = 6.
.......
..***..
.......
.......
.....*.
.....*.
.....*.

Generation = 47, Population = 6.
...*...
...*...
...*...
.......
.......
....***
.......

*** Life<ConwayCell> 9x7 ***

Generation = 0, Population = 12.
.*.....
.*.....
.*.*...
*......
*......
**.....
....*..
*.**...
.......

Generation = 14, Population = 8.
**.**..
**.**..
.......
.......
.......
.......
.......
.......
.......

*** Life<ConwayCell> 21x21 ***

Generation = 0, Population = 22.
.....................
***...............***
.....................
.....................
.....................
.....................
.....................
.........*.*.........
.......**...**.......
.........*.*.........
.....................
.........*.*.........
.......**...**.......
.........*.*.........
.....................
.....................
.....................
.....................
.....................
.....................
.....................

Generation = 100, Population = 30.
....***.......***....
....*..*.....*..*....
.....**.......**.....
.....................
.....................
.....................
.....................
.....................
.....................
.....................
.....................
.....................
.....................
.......**...**.......
......*..*.*..*......
......*..*.*..*......
.......**...**.......
.....................
.....................
.....................
.....................

*** Life<ConwayCell> 25x25 ***

Generation = 0, Population = 13.
.........................
***...................***
.........................
.........................
.........................
.........................
.........................
.........................
.........................
.........................
.........................
.........................
...........***...........
...........*.*...........
...........*.*...........
.........................
.........................
.........................
.........................
.........................
.........................
.........................
.........................
.........................
.........................

Generation = 50, Population = 70.
.........................
***...................***
.........................
....***.***...***.***....
........**.....**........
....***...........***....
.....*.*.**...**.*.*.....
......*...........*......
......*..*.....*..*......
***....***.....***....***
........*.*...*.*........
..........**.**..........
..........*...*..........
.........*.....*.........
.........*.....*.........
.........*.....*.........
.........................
.........................
.........................
.........................
.........................
.........................
.........................
.........................
.........................
