*** Life<ConwayCell> 5x13 ***

Generation = 0, Population = 6.
.....*..*....
.*...........
.............
.......**....
.....*.......

Generation = 2, Population = 0.
.............
.............
.............
.............
.............

*** Life<ConwayCell> 7x7 ***

Generation = 0, Population = 5.
.......
.......
..*.*..
.......
.*....*
.......
.*.....

Generation = 1, Population = 0.
.......
.......
.......
.......
.......
.......
.......

Generation = 2, Population = 0.
.......
.......
.......
.......
.......
.......
.......

Generation = 3, Population = 0.
.......
.......
.......
.......
.......
.......
.......

Generation = 4, Population = 0.
.......
.......
.......
.......
.......
.......
.......

Generation = 5, Population = 0.
.......
.......
.......
.......
.......
.......
.......

Generation = 6, Population = 0.
.......
.......
.......
.......
.......
.......
.......

*** Life<ConwayCell> 14x13 ***

Generation = 0, Population = 7.
...*.........
.............
.............
.............
.............
.............
.............
.............
...**........
.............
.............
.............
....*......*.
.....*...*...

Generation = 1, Population = 0.
.............
.............
.............
.............
.............
.............
.............
.............
.............
.............
.............
.............
.............
.............

*** Life<ConwayCell> 15x5 ***

Generation = 0, Population = 12.
*....
.....
.*..*
.*...
.....
.*...
..*..
.....
.*..*
*.*..
...*.
.....
...*.
.....
.....

Generation = 2, Population = 4.
.....
.....
.....
.....
.....
.....
.....
.....
.*...
.**..
..*..
.....
.....
.....
.....

*** Life<ConwayCell> 7x6 ***

Generation = 0, Population = 8.
..*.*.
.*....
.*....
......
..*...
......
*.*..*

Generation = 1, Population = 3.
......
.**...
......
......
......
.*....
......

Generation = 2, Population = 0.
......
......
......
......
......
......
......

Generation = 3, Population = 0.
......
......
......
......
......
......
......

*** Life<ConwayCell> 10x13 ***

Generation = 0, Population = 6.
.............
............*
.............
.............
.............
..........*..
............*
..*.....*....
.............
*............

*** Life<ConwayCell> 6x7 ***

Generation = 0, Population = 9.
.......
.*...*.
...*...
.*.....
...*...
*..*.**

Generation = 1, Population = 5.
.......
.......
..*....
..*....
..*.*..
....*..

*** Life<ConwayCell> 5x11 ***

Generation = 0, Population = 7.
..*........
...........
.*.........
*..*......*
....**.....

Generation = 2, Population = 0.
...........
...........
...........
...........
...........

Generation = 4, Population = 0.
...........
...........
...........
...........
...........

Generation = 6, Population = 0.
...........
...........
...........
...........
...........

Generation = 8, Population = 0.
...........
...........
...........
...........
...........

*** Life<ConwayCell> 5x6 ***

Generation = 0, Population = 8.
.....*
.....*
.**.*.
.**...
*.....

Generation = 2, Population = 8.
......
..***.
.*....
*..*..
.**...

Generation = 4, Population = 11.
..**..
..***.
.***..
*.*...
.*....

*** Life<ConwayCell> 6x8 ***

Generation = 0, Population = 6.
....*.*.
........
.*..*...
........
..*...*.
........

Generation = 2, Population = 0.
........
........
........
........
........
........

Generation = 4, Population = 0.
........
........
........
........
........
........
