10

12 5
10
7 3
5 2
2 4
9 4
8 1
11 2
3 3
10 2
11 2
9 2
3 1

9 13
10
0 8
6 9
4 7
3 5
2 6
6 3
7 9
4 11
7 5
8 1
3 2

12 12
9
1 1
4 5
3 10
3 4
8 7
9 8
1 10
4 0
9 10
8 1

9 5
13
8 4
8 2
4 3
7 0
8 0
1 2
5 0
5 1
7 2
5 3
0 4
6 0
5 0
1 2

12 11
12
8 0
3 3
7 4
3 0
0 6
8 8
0 2
7 3
5 6
0 4
10 10
8 4
2 2

10 11
14
5 0
3 0
2 2
2 4
9 4
7 8
5 8
8 9
4 1
2 3
9 7
0 4
1 6
2 10
7 2

8 12
13
1 9
0 5
0 1
1 5
0 10
6 10
6 8
4 9
1 7
0 1
4 1
7 1
0 3
6 1

8 12
10
3 5
1 8
6 10
6 0
2 6
3 2
7 9
6 0
6 7
6 6
1 1

9 5
5
4 2
6 1
6 1
4 2
3 4
1 1

15 6
15
11 2
1 5
4 2
4 1
4 4
6 5
11 0
1 1
11 3
6 5
12 2
0 5
12 5
9 0
6 5
5 2
