10

15 12
14
9 8
1 10
4 7
3 2
4 10
10 3
13 4
7 1
5 10
7 6
6 9
7 4
6 10
11 2
4 8

12 12
11
5 7
10 4
2 1
6 8
7 2
4 1
8 4
7 1
7 1
1 10
2 9
1 8

11 8
15
9 2
10 2
2 2
4 1
9 4
7 5
7 7
0 4
5 4
7 3
5 5
6 2
10 0
5 6
5 3
1 6

8 13
9
5 9
1 11
1 6
0 12
6 10
6 9
2 4
7 9
4 10
2 9

14 11
13
6 5
8 2
2 10
8 8
0 0
4 9
2 8
4 1
4 1
3 4
1 2
11 10
8 2
5 10

15 15
13
4 8
13 7
10 9
8 9
12 7
12 9
12 5
12 5
9 1
6 12
1 14
12 3
4 13
7 10

10 6
15
0 3
3 2
3 4
4 2
4 5
5 0
5 5
8 1
0 3
0 3
4 0
4 3
2 5
4 0
9 4
6 10

11 8
11
0 7
4 7
3 5
2 7
1 5
8 5
10 6
7 4
4 5
9 0
10 5
3 2

12 6
12
0 5
0 5
11 4
0 5
10 0
3 4
5 5
6 4
8 1
5 1
6 4
6 1
7 10

15 10
9
8 1
6 9
10 6
8 0
5 6
10 0
1 6
9 3
9 1
5 1
