*** Life<Cell> 4x6 ***

Generation = 0, Population = 9.
0-----
0-00-0
-00--0
---0--

*** Life<Cell> 3x20 ***

Generation = 0, Population = 1.
--------------------
--------------------
0-------------------

Generation = 14, Population = 8.
--0-0-----0-0-------
--------------------
0-----0-0-----0-----

*** Life<Cell> 4x4 ***

Generation = 0, Population = 6.
--00
----
0-00
-0--

Generation = 85, Population = 4.
....
**.-
**..
....

*** Life<Cell> 4x3 ***

Generation = 0, Population = 7.
--0
--0
0-0
000

Generation = 29, Population = 0.
...
...
.--
-.-

*** Life<Cell> 11x16 ***

Generation = 0, Population = 3.
----------------
--0-------------
----------------
----------------
----------------
----------------
----------------
----------------
---------------0
----------------
---0------------

*** Life<Cell> 3x16 ***

Generation = 0, Population = 6.
---------00-----
----0-----------
-0--0------0----

*** Life<Cell> 7x16 ***

Generation = 0, Population = 1.
---------------0
----------------
----------------
----------------
----------------
----------------
----------------

*** Life<Cell> 14x7 ***

Generation = 0, Population = 5.
----0--
-------
-------
-----0-
-------
------0
-------
-------
-------
-0-----
--0----
-------
-------
-------

*** Life<Cell> 19x17 ***

Generation = 0, Population = 2.
-----------------
-----------------
-----------------
-----------------
-----------------
-----------------
-----------------
-----------------
-----------------
-----------------
-----------------
-----------------
----------------0
-----------------
---------------0-
-----------------
-----------------
-----------------
-----------------

*** Life<Cell> 3x13 ***

Generation = 0, Population = 5.
---0---0-----
---0---------
-0----------0

*** Life<Cell> 18x14 ***

Generation = 0, Population = 6.
--------------
-0------------
--------------
0------0------
--0-----------
--------------
--------------
--------------
--------------
--------------
--------------
--------------
--------------
--------------
--------------
------------0-
--------------
--------0-----

*** Life<Cell> 18x18 ***

Generation = 0, Population = 9.
------------------
------------------
------------------
------------------
------------------
-0---0------------
------------------
-----------0----0-
------------------
------------------
-------------00---
------------------
-----------0------
------------------
----0-0-----------
------------------
------------------
------------------

*** Life<Cell> 14x14 ***

Generation = 0, Population = 10.
-0------------
--------------
--------0-----
----------0---
-0--------00--
-------0------
--------------
--------------
--------------
-0------------
--------------
-------0------
-----0--------
--------------

*** Life<Cell> 10x6 ***

Generation = 0, Population = 6.
----00
------
------
0-----
-0----
---0--
------
------
------
---0--

*** Life<Cell> 19x6 ***

Generation = 0, Population = 8.
--0---
------
------
---0--
------
------
------
0--0--
------
-----0
------
------
------
---0--
---0--
----0-
------
------
------

*** Life<Cell> 16x13 ***

Generation = 0, Population = 1.
-------------
-------------
-------------
-------------
-------------
-------------
--0----------
-------------
-------------
-------------
-------------
-------------
-------------
-------------
-------------
-------------

*** Life<Cell> 1x13 ***

Generation = 0, Population = 3.
0-------0---0

*** Life<Cell> 3x3 ***

Generation = 0, Population = 1.
---
---
0--

Generation = 52, Population = 0.
---
---
---

*** Life<Cell> 4x19 ***

Generation = 0, Population = 6.
-------------------
--------------0----
--------0------0--0
------------0---0--

Generation = 46, Population = 10.
-............**....
..**...-.....**..-.
.*..*..............
..**...............

*** Life<Cell> 9x17 ***

Generation = 0, Population = 2.
----------------0
----0------------
-----------------
-----------------
-----------------
-----------------
-----------------
-----------------
-----------------

Generation = 20, Population = 47.
--1-.-*-0**..*..*
---0**.***....1.*
0---..-0.-.*-.-0*
--0-1-..-.-.0---*
0-------.1-1-*--.
0----0-**-*--*.0-
-------1.----01-0
------0-**0*1----
------------1---0

Generation = 40, Population = 43.
.**-**...........
....**...........
.*....*.....*....
0...**.*...*-*...
.**-..**..**.**..
....*...*..*..*-.
..-**.**....***.*
......*......0***
.....1*1......-..

Generation = 60, Population = 25.
...............*.
..............*.*
...*****.*...*..*
-........*...*..*
......*..*.......
.............***.
......**.....**..
.......**....-...
.................

Generation = 80, Population = 4.
.................
.................
.................
-................
.................
.................
.................
.......**....-...
.......**........
