*** Life<FredkinCell> 8x8 ***

Generation = 0, Population = 10.
--------
-0------
--------
----0---
--00----
----00--
-----0--
----000-

Generation = 25, Population = 33.
-49---3-
1-6-561-
--7-0--5
-145++5-
--57---+
-48----+
5+-44442
3--6---8

Generation = 50, Population = 21.
-----6--
-----+36
--+9-+--
--8-++--
--+-8++-
--++----
-+-7----
7--++---

*** Life<FredkinCell> 4x8 ***

Generation = 0, Population = 10.
---0----
---0----
0000000-
---0----

Generation = 50, Population = 13.
+++6----
-+---+-+
+-9-+-++
---+----

Generation = 100, Population = 10.
--+---++
---+----
++--+---
---+-+-+

*** Life<FredkinCell> 7x7 ***

Generation = 0, Population = 15.
-------
-0-----
--0----
--000-0
----000
----000
----000

Generation = 3, Population = 29.
-0100-0
001--01
10--012
1--0---
0---133
--0-1-3
-01-110

Generation = 6, Population = 12.
---0--1
-------
-1-134-
-------
-021-3-
-------
0--1---

Generation = 9, Population = 0.
-------
-------
-------
-------
-------
-------
-------

*** Life<FredkinCell> 8x8 ***

Generation = 0, Population = 9.
--------
--------
--------
--000---
----0---
-00-000-
--------
--------

Generation = 120, Population = 16.
--------
-++-+++-
----+---
-++-----
--+-----
++1-++++
--------
--------

*** Life<FredkinCell> 5x5 ***

Generation = 0, Population = 9.
00000
0----
0----
0----
0----

Generation = 5, Population = 4.
--1--
-----
1---1
-----
--1--

Generation = 10, Population = 12.
-1-0-
1-3-0
-3-2-
0-2-1
-0-1-

Generation = 15, Population = 4.
--1--
-----
1---1
-----
--1--

Generation = 20, Population = 12.
-1-0-
1-3-0
-3-2-
0-2-1
-0-1-

*** Life<FredkinCell> 6x6 ***

Generation = 0, Population = 10.
-0000-
--000-
--00--
--0---
------
------

Generation = 30, Population = 18.
9-++-9
88--+9
0-+8-+
+-+8--
--98--
--8---

Generation = 60, Population = 20.
-++++-
--++-+
0+++++
+-----
-++++-
---00-

*** Life<FredkinCell> 7x7 ***

Generation = 0, Population = 10.
-------
-------
--0000-
-------
--00-0-
-0-0---
-0-----

Generation = 5, Population = 22.
-0---1-
0----0-
-1-00-1
0-----0
-0-00-1
030-0--
0-2-2-0

Generation = 10, Population = 0.
-------
-------
-------
-------
-------
-------
-------

*** Life<FredkinCell> 12x12 ***

Generation = 0, Population = 30.
-0----------
------------
---0-0--0--0
----00------
---0----0--0
---0-0------
------0-000-
----0----0-0
00---0000---
-------0----
-------0--00
-----0------

Generation = 25, Population = 81.
--8655254-57
---77--4-21-
+-5-5+-54-+5
54--6394--8-
---8---2--5-
2-------2-27
4-+94--8--7-
56--1-2-2-18
+8+9-+--36+-
-20-76---324
-622427774--
12-45-65-6-6

Generation = 50, Population = 70.
---+++++-7++
-+-+-+6--+8-
--9-+-+++++-
+++3-++-+-+-
-+---++6+---
---++-8-7-++
7+--+--++---
+-9------+8+
++--8-9+8++-
8+6---8----+
++---+---+-+
------+---5-
