*** Life<FredkinCell> 11x13 ***

Generation = 0, Population = 11.
-------------
-0---------0-
-------------
-------------
---------0-0-
----0--------
-------------
-------------
-----0----0--
-----00------
-0-----0-----

Generation = 1, Population = 32.
-0---------0-
0-0-------0-0
-0---------0-
---------0-0-
----0---0---0
---0-0---0-0-
----0--------
-----0----0--
----01---0-0-
-0--0-1---0--
0-0--0--0----

*** Life<FredkinCell> 10x10 ***

Generation = 0, Population = 11.
--00------
----------
------0---
----------
-----0----
---0-----0
0--------0
--0-------
----------
0-0-------

Generation = 1, Population = 32.
-0110-----
--00--0---
-----0-0--
-----00---
---00-0--0
0-0-00--01
-000----01
00-0-----0
0---------
---0------

Generation = 2, Population = 38.
0122100---
----------
--0001--0-
---0-----0
0--1--10-1
-01--1-0-2
0-1--0-0-2
--010----1
1--------0
0-0-0-----

Generation = 3, Population = 41.
1-----10--
00----0-0-
-011-200--
0----000-1
---20-2---
01--020---
-0---1-1--
-0--1--00-
20-0----01
1----0---0

Generation = 4, Population = 29.
2----0-1--
---0-----0
0--2-----0
--0-------
-003-----1
1-1--3----
--1-0202--
--0---0---
-----0----
2--00-0--1

*** Life<FredkinCell> 11x10 ***

Generation = 0, Population = 9.
----------
----0-----
0-------0-
----------
--0---0---
----0---0-
--0-------
-----0----
----------
----------
----------

Generation = 2, Population = 19.
0-------0-
--0---0---
0---------
--------1-
--0-------
--0--1----
0-0-1-0---
---01--00-
--0-------
-----0----
----------

*** Life<FredkinCell> 11x15 ***

Generation = 0, Population = 12.
-----------0---
-------------0-
-0------------0
---------------
------------0-0
--------0------
-0-0-----------
---------------
--0------------
------0--------
------------0--

Generation = 1, Population = 34.
----------0-00-
-0---------00--
0-0------------
-0----------0--
--------0--0---
-0-0---0-0--0-0
0---0---0------
-000-----------
-0-0--0--------
--0--0-0----0--
------0----0-0-

Generation = 2, Population = 35.
-0-------0-0-10
-----------1---
---0-------0---
--------0----0-
---0------0-0-0
------0---0----
-000-0------0-0
------0-0------
01-10-------0--
----0---0------
--0-------0-0-0

Generation = 3, Population = 70.
0-0-----0--1-21
-0-0-----00-000
--0-0---0-0100-
-------0-000---
--0-0-0-001--0-
-00----0-010---
01-1--0-0-00---
0-0-0----0----0
12-2-00----0-0-
000-10-0-00---0
-0-00---00-----

Generation = 4, Population = 36.
-0-----0----0--
--------01-----
---0-0----121--
---------------
--1-----1-200-0
----0-0-----00-
-----0-0----0-0
---------------
2-----1-------0
--1---0-0-1----
-101----1-----0

*** Life<FredkinCell> 10x15 ***

Generation = 0, Population = 2.
------0--------
---------------
---------------
---------------
---------------
---------------
---------------
----0----------
---------------
---------------

Generation = 1, Population = 7.
-----0-0-------
------0--------
---------------
---------------
---------------
---------------
----0----------
---0-0---------
----0----------
---------------

Generation = 2, Population = 8.
----0-0-0------
---------------
------0--------
---------------
---------------
----0----------
---------------
--0---0--------
---------------
----0----------

Generation = 3, Population = 22.
---0-----0-----
----0---0------
-----0-0-------
------0--------
----0----------
---0-0---------
--0-0-0--------
-0-0-0-0-------
--0-0-0--------
---0-0---------

*** Life<FredkinCell> 3x9 ***

Generation = 0, Population = 5.
--0-000--
-----0---
---------

Generation = 1, Population = 8.
-0--1110-
--0--1---
-----0---

*** Life<FredkinCell> 7x37 ***

Generation = 0, Population = 26.
----0--------------------------------
-0--------0-0-----------0-0------0---
----------0-----------0-----00-----0-
--0-------------------0---0-------0--
-----------0-----------0-------------
----------0--------0------0----------
----0--------------0-----0------00---

Generation = 4, Population = 64.
0-------1-31----------01----02-----2-
-----01-2---2-0-0--01-1-2---300--0---
------0-------1---00----3-2----0---1-
2-----0-----------1---2---1---------0
-------0-------0---------0-1----00---
-1----1-----0-00---1--000-----1--1---
0-------1-10---0-----20------1-----21

*** Life<FredkinCell> 6x13 ***

Generation = 0, Population = 17.
-0---0---0--0
0----0--0--0-
----0--------
0---0-----0--
--0--0-----0-
------00-----

Generation = 5, Population = 32.
0-1-2--0-1-3-
-2-0-32-11--2
2-0--1--2-01-
-01--------0-
4-----1-0--02
10---3---1--0

*** Life<FredkinCell> 15x14 ***

Generation = 0, Population = 5.
--------------
0-------------
--------------
--------------
-0------------
--------------
--------------
--------------
--------------
-----------0--
--------------
-----0--------
--------------
----0---------
--------------

Generation = 3, Population = 57.
0-0-----------
-0-0----------
0-------------
---0----------
0-0-0---------
-0-0----------
0-0--------0--
-0--------0-0-
-----0---0-0-0
----0-0-0-0-0-
---000-0-0-0-0
--01200-0-0-0-
--000000---0--
-0-00210------
--0--00-------

Generation = 6, Population = 35.
-0-0----------
----0-0-------
-----0--------
--0-0------0--
-------0------
0-0--1---0---0
-----1--------
0--01------0-0
---0----------
-10---1----0-0
-1------------
1--1----1----0
--------------
01--------1--0
--------------

*** Life<FredkinCell> 13x15 ***

Generation = 0, Population = 10.
----------0----
----------00---
0--0-----------
---------------
-------------0-
----0----------
---------------
---------------
---------------
---------------
---------------
-0-----------0-
-----0---------

Generation = 1, Population = 33.
---------01----
0--0-----0-10--
-00-0-----00---
0--0---------0-
----0-------0-0
---0-0-------0-
----0----------
---------------
---------------
---------------
-0-----------0-
0-0--0------0-0
-0--0-0------0-
