9

12 37
23
7 35
2 4
10 27
3 10
2 19
0 21
5 6
4 26
8 19
11 30
4 36
1 17
10 18
4 1
7 11
7 6
1 11
0 3
4 14
1 10
1 36
1 28
7 29
8 8

3 7
5
0 6
0 5
1 1
0 5
0 5
1 1

17 31
7
0 14
15 29
11 12
5 24
10 10
13 14
7 25
3 2

6 7
11
4 5
0 5
1 4
4 1
0 5
1 3
0 6
4 6
0 2
2 5
3 1
4 3

7 37
28
2 10
1 12
6 19
1 26
6 25
6 33
2 29
3 2
5 26
5 10
4 11
5 19
1 24
3 26
6 32
0 4
2 35
1 33
3 22
6 4
3 34
2 29
1 10
1 24
2 28
2 22
1 1
4 23
4 4

6 13
20
5 6
0 5
0 12
4 5
0 9
4 2
5 7
0 1
4 11
1 8
1 8
3 0
2 4
3 10
1 0
3 4
1 5
4 5
1 11
5 7
8 5

29 10
9
7 1
17 0
11 9
21 8
28 6
27 9
1 6
21 2
13 1
5 3

8 10
11
1 8
3 7
7 9
5 6
3 5
1 2
0 5
6 5
5 0
0 5
6 7
2 1

1 31
15
0 1
0 17
0 1
0 10
0 3
0 8
0 19
0 16
0 14
0 13
0 5
0 12
0 27
0 28
0 9
9 3
