20

9 8
1
3 2
4 2

10 8
5
1 1
4 5
6 6
9 3
5 0
7 2

13 10
4
9 9
9 4
3 7
9 1
5 1

15 9
6
4 1
12 1
11 4
8 7
10 5
6 6
2 2

5 12
5
4 4
0 1
3 1
2 5
0 9
5 1

13 6
3
10 1
0 3
7 0
5 1

12 12
3
6 10
7 10
9 2
7 2

8 10
3
1 8
6 3
0 7
1 1

14 10
1
6 8
1 1

6 7
3
0 1
3 3
1 1
6 1

14 8
3
12 3
4 7
2 5
2 2

5 14
2
2 0
2 4
6 2

6 6
6
3 1
5 4
3 1
4 4
3 1
5 1
4 2

15 13
1
10 9
3 1

8 15
2
7 4
4 3
4 2

6 7
5
1 3
3 1
0 0
0 0
1 1
4 2

11 5
3
7 0
7 2
4 0
1 1

12 7
1
10 3
3 1

8 6
3
0 0
6 4
3 2
7 1

14 12
5
9 10
5 3
5 0
2 6
1 9
3 2
