*** Life<FredkinCell> 5x5 ***

Generation = 0, Population = 5.
---0-
----0
-----
0-0--
----0

Generation = 1, Population = 9.
--0--
-----
0-0-0
---00
0-00-

Generation = 2, Population = 8.
-0-0-
0---0
---01
--0--
--1--

Generation = 3, Population = 10.
-----
---01
0--1-
-01-0
-020-

Generation = 4, Population = 10.
---00
0-0-2
---21
-----
0-31-

Generation = 5, Population = 10.
0--1-
-----
0--3-
0-1-0
--420

Generation = 6, Population = 10.
-00-0
-----
10---
1-2-1
00---

Generation = 7, Population = 10.
011--
0-0-2
-1--1
-----
-1--0

*** Life<FredkinCell> 5x5 ***

Generation = 0, Population = 5.
-----
--0-0
--0--
-----
0---0

Generation = 1, Population = 13.
--0-0
-01--
-0100
0-0-0
-0-0-

Generation = 2, Population = 6.
--1--
0-2--
-----
--1-1
--0--

Generation = 3, Population = 14.
0020-
--30-
0---0
-02--
-0100

Generation = 4, Population = 6.
1-3-0
-----
-----
-----
0-2-1

Generation = 5, Population = 6.
-----
0-3-0
-----
0-2-1
-----

Generation = 6, Population = 6.
1-3-0
-----
-----
-----
0-2-1

Generation = 7, Population = 6.
-----
0-3-0
-----
0-2-1
-----

*** Life<FredkinCell> 1x10 ***

Generation = 0, Population = 8.
0-0000-000

Generation = 1, Population = 4.
--1--1-1-1

Generation = 2, Population = 3.
-0-00-----

Generation = 3, Population = 4.
0--111----

Generation = 4, Population = 5.
-012-20---

*** Life<FredkinCell> 10x1 ***

Generation = 0, Population = 8.
-
0
0
-
0
0
0
0
0
0

Generation = 1, Population = 5.
0
1
1
-
1
-
-
-
-
1

Generation = 2, Population = 4.
1
-
2
-
-
0
-
-
0
-

Generation = 3, Population = 5.
-
-
-
0
1
-
0
0
-
1

Generation = 4, Population = 5.
-
-
2
1
2
-
1
1
-
-

Generation = 5, Population = 6.
-
1
3
-
3
-
2
2
0
-

Generation = 6, Population = 6.
1
2
4
-
-
-
3
-
1
1

Generation = 7, Population = 6.
2
-
5
1
-
0
-
-
2
2

Generation = 8, Population = 6.
-
-
6
2
-
-
3
2
3
3

Generation = 9, Population = 7.
-
2
7
3
3
0
4
-
-
4

Generation = 10, Population = 5.
2
3
-
-
-
-
5
2
3
-

Generation = 11, Population = 7.
3
4
7
-
-
0
6
-
4
4

Generation = 12, Population = 8.
4
-
8
3
3
1
7
-
5
5

Generation = 13, Population = 4.
-
-
9
-
-
-
8
-
6
6

Generation = 14, Population = 5.
-
4
-
3
-
1
-
-
7
7

Generation = 15, Population = 5.
4
-
-
-
-
-
8
2
8
8

Generation = 16, Population = 4.
-
4
-
-
-
1
9
-
-
9

Generation = 17, Population = 7.
4
-
9
-
3
2
+
2
8
-

Generation = 18, Population = 3.
-
-
-
-
4
-
-
-
9
9

Generation = 19, Population = 5.
-
-
-
3
-
2
-
2
+
+

Generation = 20, Population = 3.
-
-
9
-
-
-
-
3
-
+

*** Life<FredkinCell> 10x10 ***

Generation = 0, Population = 20.
-0--0----0
--0-0-----
---------0
0-0-------
-0---0----
-00-------
-----0---0
----0-----
-000------
-00-------

Generation = 1, Population = 33.
0--010--0-
----10----
0---0---0-
-0-0-0---0
-10-0-0---
0-10-----0
-00---0-0-
-00------0
0-11------
0---------

Generation = 2, Population = 32.
-0012-00-0
----2-0---
----10-0--
-10-------
-----0-0--
--21------
--1--0---0
--1---0---
10-20----0
1000------

Generation = 3, Population = 42.
01-----1--
-00--010-0
-000-10-0-
02100-----
-1-00---0-
-0-20--0-0
-0--0---0-
0-2-0--0--
----100-0-
-1-------0

Generation = 4, Population = 39.
1----0-200
-1--2-2-0-
-1--1--0--
1-2---0---
--0110----
0---100---
-1---0-0--
-0------0-
1012--10--
1-0-000---

Generation = 5, Population = 40.
------0311
-20030--1-
-2-0210---
-23-------
-1--2-0---
--2---1---
-21--10---
---0-000-0
-123---1--
21101-----

Generation = 6, Population = 54.
-1012-1-22
0--14-2-2-
0---32100-
134--0----
0201--10--
-0321--0--
03--0-1--0
--21--1---
--34-0-200
322120-0--

Generation = 7, Population = 49.
-2-2--2--3
1---50-0--
--0--32--0
24---10-0-
------2-0-
0143-01100
1-101-2-0-
0-----2-0-
1-45111--1
4-32---1-0

Generation = 8, Population = 31.
--------2-
--0-6---2-
---0-4----
35--0-1-1-
--01-0-0--
--5-11---1
-3-121-0--
-0------1-
---6-----2
5----0---1

Generation = 9, Population = 49.
--0-2--333
-2-1---030
02--------
46-0---0-0
0--2-12--0
--6--21-0-
14123----0
012-00----
114-11---3
-2-22-0-02

Generation = 10, Population = 38.
---2-02-4-
-30---2-4-
-30-----0-
5--101---1
1--3-----1
--73-----1
-5---12---
1-311-2---
---62----4
-333-0--1-

Generation = 11, Population = 48.
-2---1--53
1-----3--0
----34201-
6----21--2
22---1--0-
0-8-121-02
--1--2-0-0
-142-030-0
1147--1---
54--2-01--

Generation = 12, Population = 39.
--0-2--36-
----604-41
---045--20
7----3--1-
33----2011
119-2-21--
1------10-
------4--1
--5----2-4
-------21-

Generation = 13, Population = 49.
-2--3--4--
--0-71505-
0-0156-03-
8--1-4---2
4---2--122
22+----202
2-1-3-2-1-
1-4--0-0-2
-1-7---305
--3---0-2-

Generation = 14, Population = 43.
1--24--5--
1-1182---1
1--2672---
-6-2-51-13
--0---2-33
3--3------
-5---2--20
215---41-3
----21--1-
-----0-23-

Generation = 15, Population = 47.
22----2-63
--2----05-
2--37--03-
--430-2---
4--3--3---
----222---
26-23---3-
32621052-4
11573--32-
-----1-3-2

Generation = 16, Population = 41.
33---1-5-4
----8---6-
-30--7---0
-65---3-1-
-3-42--1--
-2-3---20-
--1-42----
4-7-------
-268-1-435
5433---43-

Generation = 17, Population = 53.
440-----6-
1-21-2---1
2--3----3-
87--0--0--
4-0-31-23-
33+4222-12
2-2253213-
-2--1--214
1-------46
654-210---

Generation = 18, Population = 41.
-----1-5--
-3----5-6-
---4-7----
98--1-311-
--144-3---
4--5----23
3--3-43240
4---2-----
226--11---
--5-3-1432

Generation = 19, Population = 48.
-4--4-2---
1-21-2-0-1
2-0-7-20--
+9-325--23
--25--4--3
53---2----
-62455--5-
--7--0-214
---832--46
6-6--1---3

Generation = 20, Population = 42.
-----1---4
23-2---1--
-31-8-3---
-+--363-3-
-33--1-2-4
6-+--3--23
--3--63-6-
--822--3--
2-69-31--7
-----21--4

*** Life<FredkinCell> 10x10 ***

Generation = 0, Population = 20.
-----0-0--
0-----0---
-0--0-----
--0-0---0-
-0--0---0-
-0--------
----------
-0-----0-0
--------0-
-0-00-----

Generation = 1, Population = 41.
0---0-0-0-
----0-----
---0100-0-
-0---0-010
01-010-010
010-0---0-
-------0-0
0-0---0-0-
---00-----
0--110--0-

Generation = 2, Population = 41.
-0-01----0
0---------
-00121101-
-10-0-0---
-2012-----
-2101--010
-0--0-----
----00-0--
------0---
-00-2100-0

Generation = 3, Population = 61.
---120--0-
-00--00000
--1-3-2-20
021--01-1-
03-2300010
03212001-1
01------00
-0-0-10-0-
-00--010-0
011-3-11--

Generation = 4, Population = 39.
-0-2----1-
01--0-1---
00-----03-
-3--0-20-0
14--4--12-
1--2311---
-2--0-----
--0----010
-1------0-
12---1--00

Generation = 5, Population = 46.
-1----00-0
-20-------
-11---2-4-
0-101-31--
--0---0-3-
2323--2-1-
----1-0000
-0-00-0121
-2---0---0
2-1-3-11-1

Generation = 6, Population = 56.
02---011--
03-0---000
--2-3130-0
-32-2-421-
---240-140
3-34-1-1--
0-002-11--
01-1-1-232
-3-00-1---
-2---122-2

Generation = 7, Population = 50.
--0221---0
--0---11--
0131--41-1
04-0-----0
140-5-0251
4--5-22--1
-2--3-22-0
--0------3
----1-200-
2311-233--

Generation = 8, Population = 40.
-2---2-11-
0--00---0-
-24-31---2
15-1------
251--0---2
53---331--
-----0-3--
---1-----4
03---0-11-
3--2334---

Generation = 9, Population = 48.
--02---2-0
-3-1-0--1-
0-5--24---
-6--------
3-2-51-25-
----34--11
02-0312400
010-0-----
-40--1222-
4-13-45-0-

Generation = 10, Population = 42.
--1-221-1-
---2-1----
----3-514-
1-2-2-421-
-5-----3--
-33-45-12-
--01-2--1-
---111---4
0-1---3--0
-3-4---312

Generation = 11, Population = 37.
-2-2332--0
-----211--
0-5-42-2-2
-6--3----0
-62--1--5-
5--55----1
------2-2-
0-0------5
-4-01-----
--1-3--4--

Generation = 12, Population = 49.
0--3-4--1-
0302032-1-
-2----53-3
-72140-2-1
--3-5-03-2
---66-3-2-
--0132---0
-1--1-0---
---1-1-2-0
---4445-1-

Generation = 13, Population = 46.
1--435-220
-4-3-4-12-
--5--2--44
1-3-51----
--4--1--53
--3-7541-1
--12-32---
0--12-----
-412-2--2-
--1--564--

Generation = 14, Population = 44.
--1-----31
--040---30
0-6---5--5
----624---
36-25---6-
-3-68-5222
02-------0
--02310-3-
-52-13---0
--2-4--5--

Generation = 15, Population = 49.
-22-3--2--
041-1421-1
--7---63-6
-73----211
4---6---7-
5-----6-3-
1----3-421
01--421--5
06322--2--
--3-5-6-12

Generation = 16, Population = 47.
----4--331
152---32-2
02-14--44-
-8-16---2-
5-42-10---
-3--8--2--
-----4-53-
1----322-6
-74-3-3---
4-446--523

Generation = 17, Population = 48.
1224-5----
-63--443-3
-37--2----
1932--4-31
--5--21-7-
-----5-3--
12---5264-
--0---3-3-
08-243422-
-3---5-6-4

Generation = 18, Population = 60.
2335-6-3-1
-74-15-4--
-48-43644-
2+-3625--2
5-6-6--38-
533-8--43-
23--3-37-1
-1--43---6
1-43-453--
-444-6672-

Generation = 19, Population = 50.
344647-4--
-854-64--3
-5-15-755-
---4-3-23-
--72------
64---5-5--
-4-2-54-42
12----3-37
----456--0
-55---7834

Generation = 20, Population = 49.
4557--2-31
-965---4--
06826--6--
-+--6-5--2
5-8-6---8-
7---866--2
2------7--
2-0243---8
1-435-7-2-
46646-----

*** Life<FredkinCell> 10x10 ***

Generation = 0, Population = 20.
0-00----0-
----0-0---
-0-00-----
-0--0-----
------0---
----0-0-0-
-0----0---
----------
-----0----
-0--0-----

Generation = 1, Population = 47.
--11--00-0
00001--00-
01-1100---
010-100---
-0---0100-
-0-0-----0
0-0-00100-
-0---00---
-0----0---
0-00------

Generation = 2, Population = 39.
0----01-0-
-11---0-1-
12---1--0-
--10--1-0-
---0--2-1-
-10-----0-
---0112-1-
-1----1-0-
-1-0--10--
-0110-0---

Generation = 3, Population = 57.
--1-01--10
0-20-01--0
2-011-00-0
0-2-1-2--0
-001003--0
021000-0-0
---1-----0
020-0--010
0-01-021--
0--21-1---

Generation = 4, Population = 40.
00211--02-
1-3-------
--12-111--
11---0--0-
0--2-1--1-
132-1-0---
--0211----
----------
-1---13--0
10--202---

Generation = 5, Population = 49.
--3-211130
21-0101-1-
---3---2--
-2--1---10
-0--02-020
----2--00-
0---22----
-2000-1--0
-20----10-
2-1231-0-0

Generation = 6, Population = 52.
0--1-22-41
323-21--2-
2-1411--00
132-2--0--
010213----
13-0-00---
--0-33-010
--1--0----
--11-1--10
-0---2-10-

Generation = 7, Population = 46.
1---2-3--2
4----2-0-0
--2---1--1
243--02--0
1-132--0--
---1-11-00
0-124421-1
-2----10--
---2--3--1
2--233-2--

Generation = 8, Population = 48.
20-1-2--43
523-------
--34-12-0-
--4--1--11
21-4333---
--2-----1-
-023-5--12
----0-2-1-
0213--411-
-01--42-00

Generation = 9, Population = 58.
--3---3154
-3-0--1--0
2-45--3-1-
2-50--20-2
32-5-440-0
13312-102-
01344--123
0--0-030--
1324--5-2-
----35-2-1

Generation = 10, Population = 52.
-----2----
---122--21
32-611-2-1
-4-12-3-13
4---35-121
2-4--1---0
124---2234
-21-014-10
-----16---
201-462-0-

Generation = 11, Population = 52.
---1-33-54
533-331-3-
4--7--3---
25--3----4
5-1---4232
-351-2--2-
-35445--45
----1250--
1---0271-1
3-2-57---1

Generation = 12, Population = 50.
20--2----5
--4-442-4-
-2--1-4211
36---1-0-5
6-2-3-5-4-
----23---0
1-6556---6
021-2-6---
23241-8--2
4------202

Generation = 13, Population = 46.
31-13-3---
53--5--051
-3-72--32-
----3--1-6
72--4--2-2
----3----1
23------47
132--270--
343---9--3
5-225--3--

Generation = 14, Population = 55.
---2----55
-441-4--62
-4-83144-1
3----13-17
8325-553--
---143-0--
----562-5-
2--02381--
454-1-+12-
60--67--02

Generation = 15, Population = 45.
-1-333-1--
5--255---3
-54---55--
465--24-2-
----466--2
23--54-1--
2--56----7
3--1-4--1-
5654---2--
---2-8---3

Generation = 16, Population = 38.
----4---55
-4--6---6-
4---31-6-1
57-1--51--
--25------
-45-6-1-2-
--6--6-2--
----2-8---
---51-+--3
60-3--230-

Generation = 17, Population = 49.
-1-353-1-6
--42----73
55---2572-
-852--6-27
83-----34-
2561-4-1-1
--756-----
--2-349--0
565-------
71-4-8--1-

Generation = 18, Population = 53.
3-3--4--57
545---20--
6-4-336-31
59-33-7-38
-42--6---2
-67-6--22-
2-86-622--
3--1--+11-
-7--1-+-23
--2---23-3

Generation = 19, Population = 47.
41435---68
6-6265-17-
--58--77--
---4--8--9
-5--4--343
--81-4--3-
33--67335-
4--2--+2--
----------
---468-414

Generation = 20, Population = 49.
--54-----9
747-762---
65-9-----1
-9-5-291-+
8--5---45-
2692-5-2--
-4-67844-7
5-2-------
5---12+-23
--25-9-5-5

*** Life<FredkinCell> 10x10 ***

Generation = 0, Population = 20.
0----0----
-----0----
-------0--
-------0-0
0-------0-
-0-0------
-0-0-0-0--
----0----0
-0--------
-0---00---

Generation = 1, Population = 47.
-0--010---
0---0100--
-----00100
0-----010-
---0------
-1-100-00-
01-10---00
-------00-
010-000--0
010-0110--

Generation = 2, Population = 39.
--00-2----
---0-----0
--------11
-0-0---2--
0001-00---
-2-211-1--
1------011
--00-0-1-0
-2---1-0--
-2---22100

Generation = 3, Population = 48.
-01---0--0
---101---1
-0------2-
-10100---0
1--20-10--
030---02-0
--0-0-01--
0-11-1--01
03-00-0---
030-0--2-1

Generation = 4, Population = 41.
012-0--001
---2-2---2
01-----1-1
---211-2--
200--0--0-
-----113--
---1-0----
10----0-12
1----1--0-
-41012----

Generation = 5, Population = 51.
1-30--01--
----0-0---
120-0-02-2
---3---3-0
3-1----0-0
030212-4--
110--10111
-111-1---3
2300-2-01-
-5----2-0-

Generation = 6, Population = 45.
--41-2-20-
-0--1--0-2
2-101----3
-10-------
4022001--1
14----1---
--11-2-2--
12------14
3-1--301--
-6-0---211

Generation = 7, Population = 48.
--520---1-
--022-0103
-----0-224
0-13-10---
--3----00-
--0-122--0
-122--0--1
-311--0125
4---04--1-
--1-12---2

Generation = 8, Population = 34.
-1-3-20-2-
-0-3-212--
2----1--3-
---4--13-0
40--0-111-
---22----1
1---------
--2-----3-
--------20
06----2---

Generation = 9, Population = 55.
12-4---2-1
-1-4-3230-
----1202--
-11-------
51321--221
-403-224--
-1220---11
13-1---14-
431---01-1
171--2-212

Generation = 10, Population = 44.
2--502-32-
-2-52-3-1-
--1-231---
-----11-00
6--32----2
-5-4-3--0-
-23-1-02-2
-4-2-----5
5-----12-2
-8-01-2---

Generation = 11, Population = 52.
--5-1304-1
--0-3-4323
---0-422-4
0-141---1-
--3-301-23
-605-----1
134--21313
-52-----4-
-3--04-3-3
---12-3--2

Generation = 12, Population = 50.
-26---1-22
-2154-5--4
2-11-53--5
---5-1--20
6-----2---
---6---40-
2-5-13--2-
-6-20-0155
54---51-24
-812-2--13

Generation = 13, Population = 38.
2---132-3-
---653-3--
-2-22--2--
---6-2133-
-1-------3
-----3-5-1
-3---4-3--
1723------
65-----335
---3-3-2--

Generation = 14, Population = 48.
-2---434-2
021---54--
2--3-5----
--1713-44-
6-33--2--4
----24-6-2
-4-215-423
---401--55
-----51--6
181----3-3

Generation = 15, Population = 49.
-3--154---
-32--3--24
3-1426--3-
-1----155-
----30-2-5
1606--270-
2----6--34
-72-12---6
6510--2---
2-23-3---4

Generation = 16, Population = 39.
24-5265432
----5--4-5
----------
---7-326--
6-3-41----
---7-438-2
34-2-7----
1--42----7
-6---5-3--
38------1-

Generation = 17, Population = 49.
35-63--5--
03--6--526
---4263--5
0---1--75-
----522--5
-6-825-9--
-5--18-4--
272-32-15-
6710-----6
4-2--3---4

Generation = 18, Population = 50.
---7-656-2
--26------
-215--4236
-1---32860
61--6332--
17-9-63+02
----29----
---4----6-
78-1---3-7
583-2-3-15

Generation = 19, Population = 42.
---8-7-7--
---763--2-
3-2-2--34-
---7----7-
-23-7--32-
-----74+-3
35-23--4-4
2725-2----
--12-----8
-943---32-

Generation = 20, Population = 58.
--6938----
0---7-5536
----3-4456
011-1--8-0
6343------
1-0928-+04
--5-49-5-5
-8363-01--
782305-3--
5+5-2-343-
