*** Life<Cell> 6x6 ***

Generation = 0, Population = 5.
--0---
------
-000-0
------
------
------

Generation = 1, Population = 12.
-0-0--
-0-0-0
01-1--
-000-0
------
------

Generation = 2, Population = 13.
01-100
------
1*0-0-
------
-000-0
------

Generation = 3, Population = 22.
1*-*-1
--00-0
**1--0
0--000
01-1--
-000-0

Generation = 4, Population = 10.
**0*-*
-0----
*.-1--
-0----
--0---
------

*** Life<Cell> 8x6 ***

Generation = 0, Population = 6.
------
------
0--0--
------
--0---
-----0
--0-0-
------

Generation = 2, Population = 13.
0--0--
------
01---0
-----0
--01--
---0-0
0---0-
-----0

*** Life<Cell> 8x5 ***

Generation = 0, Population = 13.
---0-
----0
-0--0
--0-0
--0--
-0-0-
0---0
-0-0-

Generation = 2, Population = 17.
---00
-----
----0
00*0*
-0--1
--1-0
0-0-0
-0-0-

Generation = 4, Population = 21.
-01**
00011
-1-0*
--.-.
0-*01
--.-0
-1--*
--1-0

Generation = 6, Population = 15.
00...
-0--*
0.--.
*-*-.
--*--
--*-0
1--1*
0---*

*** Life<Cell> 9x7 ***

Generation = 0, Population = 14.
-0-00--
0--0--0
----0--
-------
-------
0------
-------
0-----0
-000-0-

Generation = 1, Population = 18.
----100
--0100-
0----00
----0--
0------
-0-----
------0
--00---
-1-1---

Generation = 2, Population = 30.
--0--11
001-110
-0000-1
---0--0
----0--
--0---0
-000-0-
--1-0-0
0-0*0--

Generation = 3, Population = 31.
0-10---
11*1-*1
--11-0-
-0-1001
--0--0-
--1-0--
01-10-0
0---10-
---.-00

Generation = 4, Population = 32.
10--111
--.*-**
00-*0-1
0-----*
--1-01-
0-*01-0
-*0*10-
1-----0
0--.--1

Generation = 5, Population = 36.
*11-**-
--.*-..
-1-*10-
1-01--*
-0*0-*0
-0.1*--
0.1.*10
*-101-1
11-.-0*

Generation = 6, Population = 24.
.-*0*.1
1-..1..
--1.-1-
---*-0*
--.10*-
-1.-.0-
1.*..--
*0-----
-*-*-1*

Generation = 7, Population = 29.
.1.-**-
-1*.*..
01-*-*-
---*01*
-0*--.-
--*1.10
*.*..1-
*--0-01
-*-.-*.

*** Life<Cell> 7x10 ***

Generation = 0, Population = 17.
-0--0----0
----------
-0-----00-
-0----0-0-
0-0-----0-
-0-00---00
----------

Generation = 1, Population = 32.
0-00-0--0-
----0--000
010----1-0
-1---0-0-0
----0-00--
--0110-0-1
-0-00---00

Generation = 2, Population = 35.
--110-0-1-
-0----0-1-
1*10000-0-
-*----0--1
-00-1-110-
--1*-1010*
0-0-----1-

Generation = 3, Population = 31.
--*-1-1-*0
-10------0
*.----1-1-
-.00----0-
0--0-0**-0
0-*.1*1*-*
--1--00-*-

Generation = 4, Population = 33.
--*-----*-
-*-00---11
..-0-0--*-
-*1-00--1-
10011-..01
1-*.*.-.0*
00*0---0*-

Generation = 5, Population = 29.
--*-1--0*-
0.0-1--0**
.*-1-111*-
-.----00--
-1--*-.*1-
--..*.-.1.
--*1--01*-

*** Life<Cell> 10x8 ***

Generation = 0, Population = 7.
--00---0
---0----
--------
---0----
--------
0-------
--------
--------
--------
0-------

Generation = 2, Population = 19.
01*01---
-0-*-0--
--00---0
00-0-0--
--------
0-00----
--------
--------
--------
--0-----

*** Life<Cell> 10x8 ***

Generation = 0, Population = 15.
--------
--------
00--0---
-0-0-0--
-00-----
--------
-----0--
--0--0-0
-0------
----00--

Generation = 2, Population = 31.
00--0---
-1-0-0--
*010--0-
-0---0-0
-0-0-1--
-110---0
--10---1
0--1----
---0-0--
---1*-1-

Generation = 4, Population = 27.
*-1-0---
--------
.01-1---
--0----0
1----.1-
--.-11--
1---1--.
0---1*01
-01--0--
001-**--

Generation = 6, Population = 31.
.0--0-0-
1-0----0
.*-0----
-----1-0
-1---*1-
0-.*1.--
*11---1.
-01*-*-*
-------1
-*1-***-

Generation = 8, Population = 35.
.-1-----
-10-1---
..*0*---
-01-1.-0
1-**-.*0
--....0-
*.1*-11.
1-..1*1*
0-1-1-0*
-..-***-

*** Life<Cell> 7x10 ***

Generation = 0, Population = 8.
-0-----00-
----------
----------
----------
----------
--0---0---
-0----0-0-

Generation = 1, Population = 20.
0-0---0110
-0-----00-
----------
----------
--0---0---
---0-0100-
0----01--0

Generation = 2, Population = 20.
-0-0-01**1
----------
-0-----00-
--0---0---
-0----1-0-
0-------1-
-0-00-----

Generation = 3, Population = 32.
0----1-***
---0-00--0
0------110
-0-0-01---
-----0*-10
-0-00-10*0
---110--0-

Generation = 4, Population = 21.
-0-00*1***
--0---100-
------0*--
----------
------.0--
0-------.-
-00-*1--1-

Generation = 5, Population = 23.
0-01-**..*
----0-*---
--0--0-.--
------1---
0-----.-1-
--0-00-0.-
-11-.*10-0

*** Life<Cell> 6x7 ***

Generation = 0, Population = 15.
0-0---0
-0-0-00
-----00
-0---0-
0------
-00---0

Generation = 2, Population = 19.
0----0*
----0-*
--011--
--10-*-
0-1--11
0-*1-1-

Generation = 4, Population = 19.
------*
---0*1.
01-.111
-1.--.0
--1-1.*
*-**0*-

Generation = 6, Population = 20.
00--11.
--1*.1.
*-1.-.1
0..00*0
-0.-*..
.1*.-*-

Generation = 8, Population = 16.
**0-*-.
00-*..*
.1*.*.*
-.*--.-
--.0.*.
.-..-.1
