14

15 14
9
12 1
13 0
7 7
10 1
8 3
5 2
11 12
9 0
1 13
15 4

14 7
16
8 1
11 3
1 2
3 4
9 0
13 2
4 1
9 4
1 2
6 6
11 2
2 6
1 3
9 1
13 6
5 3
2 1

9 9
5
3 0
1 0
6 2
8 0
2 5
11 1

13 10
11
6 4
2 6
1 0
4 7
10 9
7 1
11 5
0 4
3 9
2 8
3 3
14 3

8 8
7
4 6
5 6
3 3
5 3
7 0
2 5
0 5
7 1

8 10
1
0 6
5 2

7 12
5
2 6
6 9
6 6
1 10
1 0
5 3

8 11
15
0 1
4 7
4 9
1 1
6 8
1 5
3 1
7 1
6 6
1 9
1 4
7 3
4 9
2 1
4 10
12 2

13 7
12
9 2
1 6
7 6
12 3
9 6
0 3
12 2
9 0
3 0
6 0
0 0
7 6
5 1

13 7
16
12 1
2 1
3 1
9 2
2 4
3 1
11 4
3 1
3 6
0 0
9 4
1 6
3 2
5 0
12 2
12 6
8 2

13 11
13
1 7
6 1
0 1
4 0
7 3
11 4
8 4
4 0
0 1
6 2
8 0
1 0
5 8
7 2

11 14
15
6 13
7 3
1 3
6 5
9 1
8 9
2 1
10 11
4 2
5 7
3 2
2 6
1 8
5 11
4 3
2 2

6 7
8
0 1
1 2
3 5
2 5
3 1
5 3
3 3
4 0
2 4

5 12
7
2 9
4 5
1 4
4 6
4 6
3 11
1 7
7 4
